<?xml version="1.0" encoding="UTF-8" standalone="no"?>
<!-- Created with Inkscape (http://www.inkscape.org/) -->
<svg
   xmlns:i="http://ns.adobe.com/AdobeIllustrator/10.0/"
   xmlns:dc="http://purl.org/dc/elements/1.1/"
   xmlns:cc="http://web.resource.org/cc/"
   xmlns:rdf="http://www.w3.org/1999/02/22-rdf-syntax-ns#"
   xmlns:svg="http://www.w3.org/2000/svg"
   xmlns="http://www.w3.org/2000/svg"
   xmlns:sodipodi="http://sodipodi.sourceforge.net/DTD/sodipodi-0.dtd"
   xmlns:inkscape="http://www.inkscape.org/namespaces/inkscape"
   width="390"
   height="184.16232"
   id="svg2236"
   sodipodi:version="0.32"
   inkscape:version="0.45"
   sodipodi:modified="true"
   version="1.0">
  <defs
     id="defs2238" />
  <sodipodi:namedview
     id="base"
     pagecolor="#ffffff"
     bordercolor="#666666"
     borderopacity="1.0"
     gridtolerance="10000"
     guidetolerance="10"
     objecttolerance="10"
     inkscape:pageopacity="0.0"
     inkscape:pageshadow="2"
     inkscape:zoom="1.5487179"
     inkscape:cx="195"
     inkscape:cy="92.081158"
     inkscape:document-units="px"
     inkscape:current-layer="layer1"
     borderlayer="true"
     gridspacingx="0px"
     gridspacingy="0px"
     inkscape:window-width="673"
     inkscape:window-height="577"
     inkscape:window-x="66"
     inkscape:window-y="87" />
  <metadata
     id="metadata2241">
    <rdf:RDF>
      <cc:Work
         rdf:about="">
        <dc:format>image/svg+xml</dc:format>
        <dc:type
           rdf:resource="http://purl.org/dc/dcmitype/StillImage" />
      </cc:Work>
    </rdf:RDF>
  </metadata>
  <g
     inkscape:label="Layer 1"
     inkscape:groupmode="layer"
     id="layer1"
     transform="translate(161.93527,181.91845)">
    <path
       style="fill:#00418a;overflow:visible"
       d="M -121.23555,-181.91845 L -161.93527,-56.388666 L -160.53183,-55.920854 L -36.405485,-15.53301 L 4.4501716,-141.21873 L -121.23555,-181.91845 z "
       id="rect13" />
    <path
       style="fill:#0099d8;overflow:visible"
       d="M 92.243052,-139.03561 L -39.3683,-129.36747 L -29.856105,2.243879 L -28.296729,2.0879414 L 101.91118,-7.2683156 L 92.243052,-139.03561 z "
       id="rect17" />
    <path
       style="fill:#00a886;overflow:visible"
       d="M 96.921181,-152.60218 L 82.418982,-21.458639 L 83.822421,-21.302702 L 213.56253,-6.9564404 L 228.06473,-138.09998 L 96.921181,-152.60218 z "
       id="rect21" />
    <path
       id="path25"
       d="M -127.55833,-109.60238 L -98.527141,-109.60238 C -75.411796,-109.60238 -78.116329,-98.642887 -82.397303,-86.572342 C -86.658816,-74.506667 -91.729209,-63.547176 -114.83966,-63.547176 L -143.87086,-63.547176 L -127.55833,-109.60238 z M -120.80671,-72.191969 L -116.83033,-72.191969 C -109.08948,-72.191969 -107.43749,-74.126568 -103.02254,-86.572342 C -98.605085,-99.037606 -98.904785,-100.96246 -106.65052,-100.96246 L -110.61228,-100.96246 L -120.80671,-72.191969 z "
       style="fill:#ffffff;overflow:visible"
       i:knockout="Off" />
    <path
       id="path27"
       d="M -43.620033,-110.50877 C -23.182474,-110.50877 -18.582289,-103.78883 -24.673587,-86.572342 C -30.78195,-69.355855 -40.147988,-62.645662 -60.573371,-62.645662 C -81.00609,-62.645662 -85.615955,-69.355855 -79.519767,-86.572342 C -73.411404,-103.78883 -64.050306,-110.50877 -43.620033,-110.50877 M -57.6885,-70.778785 C -51.565516,-70.778785 -49.738127,-74.126568 -45.323171,-86.572342 C -40.90572,-99.037606 -40.367249,-102.38052 -46.490233,-102.38052 C -52.622998,-102.38052 -54.465008,-99.037606 -58.870233,-86.572342 C -63.270618,-74.126568 -63.821265,-70.778785 -57.6885,-70.778785"
       style="fill:#ffffff;overflow:visible"
       i:knockout="Off" />
    <path
       id="path29"
       d="M 14.188963,-110.50877 C 34.616791,-110.50877 39.231596,-103.78883 33.140249,-86.572342 C 27.041666,-69.355855 17.675628,-62.645662 -2.7522004,-62.645662 C -23.182474,-62.645662 -27.792339,-69.355855 -21.701042,-86.572342 C -15.597568,-103.78883 -6.2413109,-110.50877 14.188963,-110.50877 M 0.12049491,-70.778785 C 6.2580999,-70.778785 8.0757587,-74.126568 12.500445,-86.572342 C 16.903275,-99.037606 17.446587,-102.38052 11.323602,-102.38052 C 5.1957779,-102.38052 3.3586082,-99.037606 -1.0515073,-86.572342 C -5.4567326,-74.126568 -6.0024893,-70.778785 0.12049491,-70.778785"
       style="fill:#ffffff;overflow:visible"
       i:knockout="Off" />
    <path
       id="path31"
       d="M 70.292424,-96.313573 L 70.691974,-97.410006 C 71.64222,-100.11942 70.633541,-102.38052 66.744831,-102.38052 C 62.446791,-102.38052 59.810472,-100.39232 59.074646,-98.331016 C 55.848708,-89.213536 90.125744,-93.672379 84.151362,-76.831116 C 80.671982,-67.026536 69.556598,-62.645662 51.921026,-62.645662 C 35.352617,-62.645662 27.326745,-66.056799 30.711065,-75.607981 L 31.278778,-77.225835 L 50.634504,-77.225835 L 50.244685,-76.114776 C 48.850977,-72.191969 51.034103,-70.778785 54.903302,-70.778785 C 58.996652,-70.778785 62.042351,-72.703644 62.943845,-75.227882 C 66.150322,-84.320997 33.15976,-79.798806 38.934342,-96.113778 C 42.243114,-105.40181 52.310846,-110.50877 69.200861,-110.50877 C 86.617122,-110.50877 92.50378,-106.19125 89.004939,-96.313573 L 70.292424,-96.313573 L 70.292424,-96.313573 z "
       style="fill:#ffffff;overflow:visible"
       i:knockout="Off" />
    <path
       id="path33"
       d="M 113.23375,-109.60238 L 138.38352,-109.60238 L 140.75672,-63.547176 L 119.4761,-63.547176 L 120.29965,-71.612075 L 104.3745,-71.612075 L 99.491731,-63.547176 L 78.18676,-63.547176 L 113.23375,-109.60238 z M 122.5705,-100.18765 L 122.35119,-100.18765 L 109.94928,-80.646712 L 121.12809,-80.646712 L 122.5705,-100.18765 z "
       style="fill:#ffffff;overflow:visible"
       i:knockout="Off" />
    <path
       style="fill:#ffffff;overflow:visible"
       d="M 159.55208,-109.60238 L 181.9145,-109.60238 L 184.75549,-81.211985 L 184.98452,-81.211985 L 195.03276,-109.60238 L 213.73552,-109.60238 L 197.42542,-63.547176 L 175.48208,-63.547176 L 172.23663,-91.991176 L 172.01734,-91.991176 L 161.95449,-63.547176 L 143.24199,-63.547176 L 159.55208,-109.60238 z "
       id="polygon35" />
  </g>
</svg>
