<svg version="1.1"
	 id="Layer_1" xmlns:v="http://schemas.microsoft.com/visio/2003/SVGExtensions/" xmlns:ev="http://www.w3.org/2001/xml-events"
	 xmlns="http://www.w3.org/2000/svg" xmlns:xlink="http://www.w3.org/1999/xlink" x="0px" y="0px" width="106.44px" height="58.1px"
	 viewBox="18.24 18.245 106.44 58.1" enable-background="new 18.24 18.245 106.44 58.1" xml:space="preserve">
	
	<linearGradient id="anim"  fy="0">
      <stop offset="0" stop-color="#148F01">
		</stop>
		<stop offset=".7" stop-color="#46DF04">
		</stop>
    </linearGradient>
		
		<g transform="translate(18.24,-36.6652)">
			<g>
				<path fill="url(#anim)"  stroke='rgba(49,163,0,0.7)' d="M105.44,54.91c0.55,0,1,0.45,1,1v37.68c0,0.55-0.45,1-1,1h-3.67c-0.55,0-1,0.45-1,1v16.42
					c0,0.55-0.45,1-1,1H1c-0.55,0-1-0.45-1-1v-56.1c0-0.55,0.45-1,1-1H105.44z" >
				
        </path>
			</g>
		</g>
</svg>
