<svg version="1.1"
	 id="Layer_1" xmlns:ev="http://www.w3.org/2001/xml-events" xmlns:v="http://schemas.microsoft.com/visio/2003/SVGExtensions/"
	 xmlns="http://www.w3.org/2000/svg" xmlns:xlink="http://www.w3.org/1999/xlink" x="0px" y="0px" width="66.527px"
	 height="83.584px" viewBox="0 0 66.527 83.584" enable-background="new 0 0 66.527 83.584" xml:space="preserve">
	 
<linearGradient id="anim"  x1="0%" y1="100%">
      <stop offset="0%" stop-color="red" stop-opacity="1">
      		<animate attributeName="stop-color" 
      			values="red;rgba(255,0,0,0.3);red" dur="50ms" repeatCount="indefinite"/>
		</stop>
    </linearGradient>
        
		
        
<g>
	<g id="shape5-9" transform="translate(27.3109,-23.0098)" >
		<polygon fill="url(#anim)"   points="18.143,61.092 18.143,62.322 20.972,62.322 20.972,83.582 16.203,88.352 16.063,88.212 
			16.063,88.352 4.863,88.352 4.863,88.262 4.773,88.352 0.003,83.582 0.003,63.922 -4.637,63.922 -4.637,65.342 -9.067,65.342 
			-9.067,41.252 1.133,41.252 1.133,46.922 20.972,46.922 20.972,61.092 		">
					
        </polygon>
	</g>
</g>
</svg>
